<svg width="64" height="64" viewBox="0 0 64 64" fill="none" xmlns="http://www.w3.org/2000/svg">
<g clip-path="url(#clip0)">
<path fill-rule="evenodd" clip-rule="evenodd" d="M0 13.5C0 12.6716 0.671573 12 1.5 12H62.6343C63.4628 12 64.1343 12.6716 64.1343 13.5C64.1343 14.3284 63.4628 15 62.6343 15H1.5C0.671573 15 0 14.3284 0 13.5ZM0 32.1059C0 31.2774 0.671573 30.6059 1.5 30.6059H62.6343C63.4628 30.6059 64.1343 31.2774 64.1343 32.1059C64.1343 32.9343 63.4628 33.6059 62.6343 33.6059H1.5C0.671573 33.6059 0 32.9343 0 32.1059ZM1.5 49.2127C0.671573 49.2127 0 49.8842 0 50.7127C0 51.5411 0.671573 52.2127 1.5 52.2127H62.6343C63.4628 52.2127 64.1343 51.5411 64.1343 50.7127C64.1343 49.8842 63.4628 49.2127 62.6343 49.2127H1.5Z" fill="#464646"/>
</g>
<defs>
<clipPath id="clip0">
<rect width="64" height="64" fill="white"/>
</clipPath>
</defs>
</svg>
