<svg width="64" height="64" viewBox="0 0 64 64" fill="none" xmlns="http://www.w3.org/2000/svg">
<g clip-path="url(#clip0)">
<path fill-rule="evenodd" clip-rule="evenodd" d="M31.5757 3.1164C31.023 3.32619 30.4563 3.70362 30.0512 4.16914C29.6443 4.63675 29.4713 5.10359 29.4912 5.52914C29.5483 6.75074 29.5568 7.94648 29.5568 9.13926V13.5761C29.5568 13.596 29.5564 13.616 29.5556 13.6359C29.5104 14.7712 29.2105 15.8819 28.6783 16.8858C28.6682 16.9048 28.6578 16.9235 28.647 16.942L27.7161 18.5294C26.1506 21.1933 24.5873 23.8616 23.0263 26.5344L23.0252 26.5363C22.3694 27.6553 21.7159 28.7759 21.0646 29.898C20.9782 30.0474 20.8289 30.2895 20.7073 30.4867C20.6342 30.6052 20.5711 30.7076 20.5376 30.7639C20.4727 30.8743 20.4152 30.9778 20.3645 31.0775C20.2305 31.3823 20.0342 31.656 19.7879 31.8809C19.7709 31.8965 19.7536 31.9116 19.7358 31.9264C19.5554 32.0765 19.3692 32.2105 19.2308 32.3101L19.211 32.3243C18.6925 32.6991 18.1643 33.0479 17.6661 33.3769L17.6521 33.3861C17.133 33.7279 16.6123 34.0665 16.09 34.4018C15.8505 34.5557 15.6104 34.7089 15.3697 34.8615C15.1358 35.0097 14.8655 35.0902 14.5886 35.0943L2.95397 35.2637L2.95482 57.4835L14.7397 57.3042L14.7625 57.304H17.6771C18.1335 57.304 18.5799 57.4379 18.9609 57.689C18.961 57.6891 18.9608 57.689 18.9609 57.689L21.652 59.4625L21.6647 59.4709C22.2757 59.8825 22.9941 60.1056 23.7306 60.1126C24.1321 60.1111 24.5447 60.0936 24.9879 60.0747L24.9928 60.0745C25.4263 60.0561 25.8926 60.0362 26.3484 60.0362H52.574C53.337 60.0242 54.0649 59.7125 54.6 59.1681C55.1372 58.6217 55.4368 57.8853 55.4336 57.1191L55.4336 57.1039C55.4408 55.8841 55.4287 55.0657 55.2526 54.5316C55.2164 54.4218 55.1816 54.3547 55.1569 54.3162C55.134 54.2806 55.1198 54.2696 55.1165 54.267C55.1137 54.2648 55.0984 54.253 55.0544 54.2399C55.006 54.2253 54.9134 54.2065 54.7591 54.2065C53.9306 54.2065 53.2591 53.5349 53.2591 52.7065C53.2591 51.8781 53.9306 51.2065 54.7591 51.2065H54.8106C55.453 51.1924 56.0654 50.9312 56.5202 50.4769C56.9778 50.0199 57.2402 49.4032 57.2521 48.7566C57.2523 48.7465 57.2526 48.7363 57.253 48.7261C57.3026 47.4507 57.1701 46.5389 56.8949 45.9949C56.7725 45.7529 56.6391 45.6183 56.5015 45.5347C56.362 45.45 56.1218 45.3595 55.6959 45.3595C54.8675 45.3595 54.1959 44.688 54.1959 43.8595C54.1959 43.0311 54.8675 42.3595 55.6959 42.3595H57.4617C58.1434 42.3595 58.6152 42.082 58.9623 41.6105C59.3416 41.0951 59.5992 40.2922 59.5992 39.309C59.5992 38.1789 59.4367 37.4485 59.1916 37.0397C59.0307 36.7711 58.7911 36.5393 58.0767 36.5393C57.2483 36.5393 56.5767 35.8677 56.5767 35.0393C56.5767 34.2109 57.2483 33.5393 58.0767 33.5393H58.3618C59.0219 33.5314 59.6565 33.2827 60.1462 32.8399C60.6375 32.3956 60.9489 31.7866 61.0216 31.1283L61.0228 31.1177C61.1642 29.9155 60.9418 29.0298 60.5844 28.4961C60.2666 28.0213 59.7617 27.6927 58.9078 27.6924C58.9074 27.6924 58.907 27.6924 58.9066 27.6924L36.4536 27.7296C35.891 27.7305 35.3751 27.4165 35.1176 26.9163C34.8755 26.4464 34.8998 25.8863 35.1752 25.4408C35.1793 25.4318 35.1845 25.42 35.1907 25.4052C35.2223 25.3303 35.2661 25.2158 35.3219 25.0569C35.4328 24.7413 35.5708 24.3077 35.727 23.7826C36.0384 22.7355 36.407 21.3756 36.7548 19.9734C37.1029 18.57 37.4254 17.1427 37.6477 15.958C37.759 15.3647 37.8423 14.8477 37.8917 14.433C37.9409 14.0209 37.9455 13.7954 37.9407 13.7121C37.7601 12.4388 37.4929 11.1793 37.1409 9.94236C37.1358 9.92454 37.1311 9.90662 37.1267 9.88862C36.7513 8.35592 36.3492 6.83127 35.9431 5.29155C35.8783 5.04573 35.8134 4.79953 35.7484 4.55285C35.7211 4.44904 35.5983 4.22644 35.2276 3.93455C34.8763 3.65791 34.4318 3.42259 34.0321 3.25828C34.0196 3.25314 34.0071 3.24784 33.9948 3.24236C33.2311 2.90409 32.3698 2.85945 31.5757 3.1164ZM61.7197 35.4237C61.7349 35.4481 61.75 35.4726 61.7648 35.4973C62.4375 36.6196 62.5992 38.024 62.5992 39.309C62.5992 40.7668 62.2246 42.2392 61.3784 43.3888C60.9273 44.0017 60.3527 44.5048 59.6713 44.8493C60.2124 46.0552 60.3016 47.5067 60.2513 48.8282C60.2209 50.2458 59.6438 51.5972 58.6403 52.5995C58.4239 52.8156 58.1914 53.0118 57.9455 53.187C58.0059 53.3224 58.0575 53.4582 58.1017 53.5923C58.4499 54.6485 58.4412 55.9618 58.4344 56.9848C58.4341 57.0285 58.4338 57.0717 58.4336 57.1144C58.438 58.6689 57.8293 60.1627 56.7393 61.2714C55.6474 62.3819 54.161 63.0162 52.6038 63.0361L52.5846 63.0362H26.3484C25.9655 63.0362 25.5617 63.053 25.1154 63.072L25.0906 63.0731C24.6625 63.0913 24.1963 63.1111 23.7318 63.1126L23.7157 63.1126C22.3897 63.1026 21.0959 62.703 19.9953 61.9635L17.4771 60.304H14.7741L1.47769 60.5063C1.07597 60.5124 0.688584 60.3571 0.402331 60.0752C0.116079 59.7933 -0.0451119 59.4083 -0.045127 59.0065L-0.0460815 33.7855C-0.0461125 32.9655 0.61223 32.2975 1.43207 32.2856L14.1203 32.1008C14.2365 32.0266 14.3525 31.9523 14.4684 31.8779C14.9809 31.5488 15.4923 31.2163 16.0017 30.8809C16.5118 30.544 16.991 30.2273 17.4535 29.893L17.456 29.8912C17.5485 29.8246 17.6234 29.7705 17.6884 29.7216C17.7749 29.5513 17.8649 29.3906 17.9533 29.2403L17.9562 29.2354C18.0778 29.0304 18.1556 28.9067 18.2254 28.7956C18.3005 28.6763 18.3664 28.5714 18.4677 28.3959L18.4693 28.3932C19.1227 27.2674 19.7784 26.1432 20.4362 25.0207C21.9983 22.346 23.5627 19.6759 25.1292 17.0102C25.1294 17.0099 25.1291 17.0104 25.1292 17.0102L26.0417 15.4541C26.3504 14.8626 26.5262 14.2107 26.5568 13.5441V9.13926C26.5568 7.95605 26.5482 6.81782 26.4945 5.66915C26.4294 4.27547 27.0204 3.08207 27.7881 2.19981C28.5517 1.3223 29.5595 0.664454 30.5567 0.294549C30.573 0.288529 30.5893 0.282791 30.6057 0.277337C32.1081 -0.221526 33.7419 -0.145186 35.1909 0.491103C35.7591 0.726161 36.4589 1.08574 37.0835 1.57754C37.6955 2.05943 38.3854 2.78703 38.6493 3.78814C38.7137 4.03267 38.7784 4.27812 38.8431 4.52343C39.2465 6.05278 39.6536 7.59673 40.034 9.14822C40.4236 10.5217 40.7186 11.9203 40.9171 13.3342C40.9197 13.3531 40.922 13.372 40.9239 13.3909C40.9663 13.8072 40.9271 14.3144 40.8706 14.7883C40.8104 15.2936 40.7143 15.8819 40.5962 16.5113C40.3597 17.7719 40.0228 19.2592 39.6666 20.6956C39.31 22.1333 38.9295 23.5385 38.6025 24.6378C38.5937 24.6674 38.5849 24.6969 38.5762 24.7261L58.9066 24.6924C60.703 24.6924 62.1702 25.4723 63.0772 26.8269C63.944 28.1214 64.1995 29.7839 64.0029 31.4631C63.8485 32.8486 63.1925 34.1298 62.1584 35.0649C62.0176 35.1922 61.8712 35.3119 61.7197 35.4237Z" fill="#464646"/>
</g>
<defs>
<clipPath id="clip0">
<rect width="64" height="64" fill="white"/>
</clipPath>
</defs>
</svg>
