<svg width="64" height="64" viewBox="0 0 64 64" fill="none" xmlns="http://www.w3.org/2000/svg">
<path fill-rule="evenodd" clip-rule="evenodd" d="M22.2496 8.49915C19.7132 11.9618 18.1016 16.8135 18.1016 22.2359C18.1016 27.6583 19.7132 32.51 22.2496 35.9727C24.7852 39.4345 28.1794 41.4397 31.8095 41.4397C35.4396 41.4397 38.8338 39.4345 41.3695 35.9727C43.9058 32.51 45.5175 27.6583 45.5175 22.2359C45.5175 16.8135 43.9058 11.9618 41.3695 8.49915C38.8338 5.03734 35.4396 3.03217 31.8095 3.03217C28.1794 3.03217 24.7852 5.03734 22.2496 8.49915ZM19.9065 6.67042C22.8637 2.63312 27.0578 0 31.8095 0C36.5613 0 40.7554 2.63312 43.7126 6.67042C46.6691 10.7068 48.4549 16.2151 48.4549 22.2359C48.4549 28.2567 46.6691 33.765 43.7126 37.8014C40.7554 41.8387 36.5613 44.4718 31.8095 44.4718C27.0578 44.4718 22.8637 41.8387 19.9065 37.8014C16.9499 33.765 15.1642 28.2567 15.1642 22.2359C15.1642 16.2151 16.9499 10.7068 19.9065 6.67042Z" fill="#464646"/>
<path fill-rule="evenodd" clip-rule="evenodd" d="M16.5765 41.0972C16.7997 41.9022 16.3485 42.7416 15.5687 42.972L6.84386 45.5499C5.74018 45.9227 4.73292 46.5505 3.90023 47.3852C3.30309 48.0235 3.08094 48.5233 2.99623 48.7916C2.95243 48.9304 2.94119 49.0204 2.93834 49.0523C2.93823 49.0537 2.93812 49.0549 2.93803 49.056C2.93911 49.0797 2.93965 49.1034 2.93965 49.1272V56.1183C3.00339 57.2628 3.46243 58.3467 4.23403 59.1727C4.26898 59.2101 4.30205 59.2493 4.33309 59.2902C4.65303 59.712 5.05119 60.0644 5.50429 60.3271C5.93402 60.5762 6.40494 60.7396 6.89267 60.8091H32.1809C32.992 60.8091 33.6496 61.4879 33.6496 62.3252C33.6496 63.1625 32.992 63.8413 32.1809 63.8413H6.79979C6.74247 63.8413 6.68521 63.8378 6.62829 63.8309C5.72748 63.7216 4.8567 63.4293 4.0659 62.9708C3.29751 62.5254 2.61889 61.9315 2.0677 61.2213C0.827037 59.8667 0.0945348 58.0985 0.00407464 56.2347C0.00284824 56.2094 0.00223475 56.1841 0.00223475 56.1588V49.1705C0.00115331 49.1449 0.000380846 49.1167 0.000108066 49.0859C-0.000646894 49.0007 0.00242711 48.8961 0.0133448 48.7739C0.035238 48.5288 0.0884241 48.2163 0.203356 47.8522C0.435474 47.1169 0.905308 46.2158 1.80692 45.2579C1.81595 45.2483 1.82511 45.2388 1.83439 45.2295C2.99988 44.0551 4.4132 43.175 5.96215 42.6574C5.97811 42.6521 5.99415 42.6471 6.01027 42.6423L14.7604 40.0569C15.5402 39.8265 16.3533 40.2922 16.5765 41.0972Z" fill="#464646"/>
<path fill-rule="evenodd" clip-rule="evenodd" d="M47.4234 41.0973C47.6466 40.2923 48.4598 39.8265 49.2396 40.0569L57.9906 42.6423C58.0068 42.647 58.0228 42.6521 58.0388 42.6574C59.5881 43.1751 61.0004 44.0554 62.1656 45.2295C62.1749 45.2388 62.184 45.2483 62.1931 45.2579C63.0947 46.2158 63.5645 47.1169 63.7966 47.8522C63.9116 48.2163 63.9648 48.5288 63.9866 48.7739C63.9976 48.8961 64.0006 49.0007 63.9999 49.0859C63.9996 49.1167 63.9988 49.1449 63.9978 49.1705V56.1588C63.9978 56.1841 63.9971 56.2094 63.9959 56.2347C63.9055 58.0985 63.173 59.8667 61.9323 61.2214C61.3811 61.9315 60.7025 62.5254 59.9341 62.9708C59.1433 63.4293 58.2725 63.7216 57.3717 63.8309C57.3148 63.8378 57.2575 63.8413 57.2002 63.8413H31.8191C31.008 63.8413 30.3504 63.1625 30.3504 62.3252C30.3504 61.4879 31.008 60.8091 31.8191 60.8091H57.1073C57.5951 60.7396 58.066 60.5762 58.4957 60.3271C58.9488 60.0644 59.347 59.712 59.6669 59.2902C59.6979 59.2493 59.731 59.2101 59.766 59.1727C60.5376 58.3467 60.9966 57.2628 61.0603 56.1183V49.1272C61.0603 49.1034 61.0609 49.0797 61.062 49.056C61.0619 49.0549 61.0618 49.0537 61.0616 49.0523C61.0588 49.0204 61.0476 48.9304 61.0038 48.7916C60.9191 48.5233 60.6969 48.0235 60.0997 47.3852C59.2668 46.5502 58.2604 45.9226 57.1571 45.5499L48.4313 42.972C47.6515 42.7416 47.2003 41.9023 47.4234 41.0973Z" fill="#464646"/>
</svg>
