<?xml version="1.0" encoding="utf-8"?>
<!-- Generator: Adobe Illustrator 22.0.1, SVG Export Plug-In . SVG Version: 6.00 Build 0)  -->
<svg version="1.1" id="Layer_1" xmlns="http://www.w3.org/2000/svg" xmlns:xlink="http://www.w3.org/1999/xlink" x="0px" y="0px"
	 viewBox="0 0 359.1 93" style="enable-background:new 0 0 359.1 93;" xml:space="preserve">
<style type="text/css">
	.st0{fill:#FFFFFF;}
</style>
<g>
	<path class="st0" d="M124.6,22.7c0,1.4-0.2,2.6-0.5,3.8c-0.4,1.2-0.9,2.1-1.6,3c-0.7,0.8-1.5,1.5-2.5,1.9c-1,0.5-2.2,0.7-3.4,0.7
		c-1,0-2-0.1-2.8-0.4c-0.8-0.3-1.4-0.5-1.8-0.8V38h-3.2V14.2c0.8-0.2,1.7-0.4,2.9-0.6c1.1-0.2,2.5-0.3,4-0.3c1.4,0,2.6,0.2,3.7,0.7
		c1.1,0.4,2.1,1.1,2.8,1.9c0.8,0.8,1.4,1.8,1.8,3C124.4,19.9,124.6,21.2,124.6,22.7z M121.3,22.7c0-2.1-0.5-3.7-1.6-4.8
		c-1-1.1-2.4-1.7-4.2-1.7c-1,0-1.7,0-2.3,0.1c-0.5,0.1-1,0.2-1.3,0.2v11.4c0.4,0.3,1,0.6,1.7,0.9c0.7,0.3,1.5,0.5,2.4,0.5
		c0.9,0,1.7-0.2,2.4-0.5c0.7-0.3,1.2-0.8,1.6-1.4c0.4-0.6,0.7-1.3,0.9-2.1C121.2,24.4,121.3,23.6,121.3,22.7z"/>
	<path class="st0" d="M145.1,22.6c0,1.4-0.2,2.7-0.6,3.9c-0.4,1.2-1,2.1-1.7,3c-0.8,0.8-1.6,1.5-2.7,1.9c-1,0.5-2.2,0.7-3.4,0.7
		c-1.2,0-2.4-0.2-3.4-0.7c-1-0.5-1.9-1.1-2.7-1.9c-0.8-0.8-1.3-1.8-1.7-3c-0.4-1.2-0.6-2.4-0.6-3.9c0-1.4,0.2-2.7,0.6-3.9
		c0.4-1.2,1-2.2,1.7-3c0.8-0.8,1.6-1.5,2.7-1.9c1-0.5,2.2-0.7,3.4-0.7c1.2,0,2.4,0.2,3.4,0.7c1,0.5,1.9,1.1,2.7,1.9
		c0.7,0.8,1.3,1.8,1.7,3C144.8,19.9,145.1,21.2,145.1,22.6z M141.7,22.6c0-2-0.5-3.6-1.4-4.8c-0.9-1.2-2.2-1.8-3.7-1.8
		c-1.6,0-2.8,0.6-3.7,1.8c-0.9,1.2-1.4,2.8-1.4,4.8c0,2,0.5,3.6,1.4,4.8c0.9,1.2,2.2,1.8,3.7,1.8c1.6,0,2.8-0.6,3.7-1.8
		C141.2,26.3,141.7,24.7,141.7,22.6z"/>
	<path class="st0" d="M156.2,13.2c0.3,0,0.6,0,1,0.1c0.4,0,0.7,0.1,1.1,0.1c0.3,0.1,0.7,0.1,1,0.2c0.3,0.1,0.5,0.1,0.6,0.2l-0.6,2.8
		c-0.3-0.1-0.7-0.2-1.3-0.3c-0.6-0.1-1.3-0.2-2.3-0.2c-0.6,0-1.2,0.1-1.8,0.2c-0.6,0.1-1,0.2-1.2,0.3v15.1h-3.2V14.4
		c0.8-0.3,1.7-0.5,2.8-0.8C153.6,13.4,154.8,13.2,156.2,13.2z"/>
	<path class="st0" d="M166,13.6h6.8v2.7H166v8.3c0,0.9,0.1,1.6,0.2,2.2c0.1,0.6,0.3,1.1,0.6,1.4c0.3,0.3,0.6,0.6,1,0.7
		c0.4,0.1,0.9,0.2,1.5,0.2c1,0,1.7-0.1,2.3-0.3c0.6-0.2,1-0.4,1.2-0.5l0.6,2.7c-0.3,0.2-0.9,0.4-1.7,0.6C171,31.9,170,32,169,32
		c-1.2,0-2.2-0.2-3-0.5c-0.8-0.3-1.4-0.8-1.9-1.4c-0.5-0.6-0.8-1.4-1-2.3c-0.2-0.9-0.3-2-0.3-3.2V8.6l3.2-0.6V13.6z"/>
	<path class="st0" d="M182.7,13.2c1.3,0,2.4,0.2,3.3,0.5c0.9,0.3,1.6,0.8,2.1,1.4c0.5,0.6,0.9,1.3,1.2,2.2c0.2,0.8,0.3,1.8,0.3,2.8
		v11.3c-0.3,0-0.7,0.1-1.2,0.2c-0.5,0.1-1.1,0.2-1.7,0.2c-0.6,0.1-1.3,0.1-2,0.2c-0.7,0.1-1.4,0.1-2.2,0.1c-1,0-2-0.1-2.8-0.3
		c-0.9-0.2-1.6-0.5-2.2-1c-0.6-0.5-1.1-1-1.5-1.8c-0.3-0.7-0.5-1.6-0.5-2.7c0-1,0.2-1.8,0.6-2.6c0.4-0.7,1-1.3,1.6-1.7
		c0.7-0.4,1.5-0.8,2.4-1c0.9-0.2,1.9-0.3,2.9-0.3c0.3,0,0.7,0,1,0.1c0.3,0,0.7,0.1,1,0.1c0.3,0.1,0.6,0.1,0.8,0.2
		c0.2,0,0.4,0.1,0.5,0.1v-0.9c0-0.5-0.1-1.1-0.2-1.6c-0.1-0.5-0.3-1-0.6-1.4c-0.3-0.4-0.7-0.7-1.2-1c-0.5-0.2-1.2-0.4-2-0.4
		c-1.1,0-2,0.1-2.8,0.2c-0.8,0.2-1.4,0.3-1.8,0.5l-0.4-2.7c0.4-0.2,1.1-0.4,2.1-0.5C180.5,13.3,181.6,13.2,182.7,13.2z M183,29.3
		c0.8,0,1.4,0,2-0.1c0.6,0,1.1-0.1,1.5-0.2v-5.4c-0.2-0.1-0.6-0.2-1.1-0.3c-0.5-0.1-1.1-0.1-1.9-0.1c-0.5,0-1,0-1.5,0.1
		c-0.5,0.1-1,0.2-1.5,0.4c-0.5,0.2-0.8,0.5-1.1,0.9c-0.3,0.4-0.5,0.9-0.5,1.5c0,1.2,0.4,2,1.1,2.4C180.7,29.1,181.7,29.3,183,29.3z"
		/>
	<path class="st0" d="M200.3,32c-2,0-3.4-0.5-4.2-1.3c-0.8-0.8-1.2-2.1-1.2-3.8V5.3l3.2-0.6v21.6c0,0.5,0,1,0.1,1.3
		c0.1,0.3,0.2,0.6,0.5,0.8c0.2,0.2,0.5,0.4,0.8,0.5c0.3,0.1,0.8,0.2,1.3,0.3L200.3,32z"/>
	<path class="st0" d="M203.4,22.7c0-1.6,0.2-3,0.7-4.2c0.5-1.2,1.1-2.2,1.8-3c0.8-0.8,1.6-1.4,2.6-1.8c1-0.4,2-0.6,3-0.6
		c2.4,0,4.3,0.8,5.6,2.3c1.3,1.5,1.9,3.8,1.9,6.9c0,0.1,0,0.3,0,0.5c0,0.2,0,0.4,0,0.6h-12.3c0.1,1.9,0.7,3.3,1.6,4.3
		c0.9,1,2.4,1.5,4.4,1.5c1.1,0,2.1-0.1,2.9-0.3c0.8-0.2,1.4-0.4,1.7-0.6l0.5,2.7c-0.4,0.2-1.1,0.4-2.1,0.7c-1,0.2-2.1,0.3-3.3,0.3
		c-1.6,0-2.9-0.2-4.1-0.7c-1.1-0.5-2.1-1.1-2.8-2c-0.7-0.8-1.3-1.8-1.6-3C203.6,25.3,203.4,24,203.4,22.7z M215.7,20.9
		c0-1.5-0.3-2.6-1.1-3.6c-0.8-0.9-1.8-1.4-3.1-1.4c-0.7,0-1.4,0.1-2,0.4c-0.6,0.3-1,0.7-1.4,1.1c-0.4,0.5-0.7,1-0.9,1.6
		c-0.2,0.6-0.4,1.2-0.4,1.8H215.7z"/>
	<path class="st0" d="M238.8,4.8c0.9,0,1.8,0.1,2.4,0.2c0.7,0.1,1.2,0.3,1.4,0.4l-0.6,2.8c-0.3-0.1-0.7-0.3-1.2-0.4
		c-0.5-0.1-1.1-0.2-1.9-0.2c-1.5,0-2.6,0.4-3.2,1.2c-0.6,0.8-0.9,1.9-0.9,3.3v1.6h6.9v2.7H235v15.3h-3.2V12c0-2.3,0.6-4.1,1.7-5.3
		C234.6,5.4,236.3,4.8,238.8,4.8z"/>
	<path class="st0" d="M261,22.6c0,1.4-0.2,2.7-0.6,3.9c-0.4,1.2-1,2.1-1.7,3c-0.8,0.8-1.6,1.5-2.7,1.9c-1,0.5-2.2,0.7-3.4,0.7
		c-1.2,0-2.4-0.2-3.4-0.7c-1-0.5-1.9-1.1-2.7-1.9c-0.8-0.8-1.3-1.8-1.7-3c-0.4-1.2-0.6-2.4-0.6-3.9c0-1.4,0.2-2.7,0.6-3.9
		c0.4-1.2,1-2.2,1.7-3c0.8-0.8,1.6-1.5,2.7-1.9c1-0.5,2.2-0.7,3.4-0.7c1.2,0,2.4,0.2,3.4,0.7c1,0.5,1.9,1.1,2.7,1.9
		c0.8,0.8,1.3,1.8,1.7,3C260.8,19.9,261,21.2,261,22.6z M257.6,22.6c0-2-0.5-3.6-1.4-4.8c-0.9-1.2-2.2-1.8-3.7-1.8
		c-1.6,0-2.8,0.6-3.7,1.8c-0.9,1.2-1.4,2.8-1.4,4.8c0,2,0.5,3.6,1.4,4.8c0.9,1.2,2.2,1.8,3.7,1.8c1.6,0,2.8-0.6,3.7-1.8
		C257.2,26.3,257.6,24.7,257.6,22.6z"/>
	<path class="st0" d="M272.2,13.2c0.3,0,0.6,0,1,0.1c0.4,0,0.7,0.1,1.1,0.1c0.3,0.1,0.7,0.1,1,0.2c0.3,0.1,0.5,0.1,0.6,0.2l-0.6,2.8
		c-0.3-0.1-0.7-0.2-1.3-0.3c-0.6-0.1-1.3-0.2-2.3-0.2c-0.6,0-1.2,0.1-1.8,0.2c-0.6,0.1-1,0.2-1.2,0.3v15.1h-3.2V14.4
		c0.8-0.3,1.7-0.5,2.8-0.8C269.5,13.4,270.8,13.2,272.2,13.2z"/>
	<path class="st0" d="M278.9,14.1c0.7-0.2,1.7-0.4,2.9-0.6c1.2-0.2,2.6-0.3,4.2-0.3c1.4,0,2.6,0.2,3.6,0.6c0.9,0.4,1.7,1,2.3,1.7
		c0.6,0.7,1,1.6,1.2,2.6c0.2,1,0.3,2.1,0.3,3.4v10.1h-3.2v-9.4c0-1.1-0.1-2.1-0.2-2.8c-0.2-0.8-0.4-1.4-0.7-1.9
		c-0.3-0.5-0.8-0.8-1.4-1.1c-0.6-0.2-1.3-0.3-2.1-0.3c-0.3,0-0.7,0-1.1,0c-0.4,0-0.7,0.1-1.1,0.1c-0.3,0-0.6,0.1-0.9,0.1
		c-0.3,0-0.5,0.1-0.6,0.1v15.2h-3.2V14.1z"/>
	<path class="st0" d="M300.4,10.4c-0.6,0-1.1-0.2-1.5-0.6c-0.4-0.4-0.6-0.9-0.6-1.5c0-0.6,0.2-1.2,0.6-1.5c0.4-0.4,0.9-0.6,1.5-0.6
		c0.6,0,1.1,0.2,1.5,0.6c0.4,0.4,0.6,0.9,0.6,1.5c0,0.6-0.2,1.2-0.6,1.5C301.4,10.2,300.9,10.4,300.4,10.4z M302,31.6h-3.2v-18h3.2
		V31.6z"/>
	<path class="st0" d="M310.5,13.6h6.8v2.7h-6.8v8.3c0,0.9,0.1,1.6,0.2,2.2c0.1,0.6,0.3,1.1,0.6,1.4c0.3,0.3,0.6,0.6,1,0.7
		c0.4,0.1,0.9,0.2,1.5,0.2c1,0,1.7-0.1,2.3-0.3c0.6-0.2,1-0.4,1.2-0.5l0.6,2.7c-0.3,0.2-0.9,0.4-1.7,0.6c-0.8,0.2-1.7,0.4-2.8,0.4
		c-1.2,0-2.2-0.2-3-0.5c-0.8-0.3-1.4-0.8-1.9-1.4c-0.5-0.6-0.8-1.4-1-2.3c-0.2-0.9-0.3-2-0.3-3.2V8.6l3.2-0.6V13.6z"/>
	<path class="st0" d="M336.9,22.6c0,1.4-0.2,2.7-0.6,3.9c-0.4,1.2-1,2.1-1.7,3c-0.8,0.8-1.6,1.5-2.7,1.9c-1,0.5-2.2,0.7-3.4,0.7
		c-1.2,0-2.4-0.2-3.4-0.7c-1-0.5-1.9-1.1-2.7-1.9c-0.8-0.8-1.3-1.8-1.7-3c-0.4-1.2-0.6-2.4-0.6-3.9c0-1.4,0.2-2.7,0.6-3.9
		c0.4-1.2,1-2.2,1.7-3c0.8-0.8,1.6-1.5,2.7-1.9c1-0.5,2.2-0.7,3.4-0.7c1.2,0,2.4,0.2,3.4,0.7c1,0.5,1.9,1.1,2.7,1.9
		c0.8,0.8,1.3,1.8,1.7,3C336.6,19.9,336.9,21.2,336.9,22.6z M333.5,22.6c0-2-0.5-3.6-1.4-4.8c-0.9-1.2-2.2-1.8-3.7-1.8
		c-1.6,0-2.8,0.6-3.7,1.8c-0.9,1.2-1.4,2.8-1.4,4.8c0,2,0.5,3.6,1.4,4.8c0.9,1.2,2.2,1.8,3.7,1.8c1.6,0,2.8-0.6,3.7-1.8
		C333,26.3,333.5,24.7,333.5,22.6z"/>
	<path class="st0" d="M348,13.2c0.3,0,0.6,0,1,0.1c0.4,0,0.7,0.1,1.1,0.1c0.3,0.1,0.7,0.1,1,0.2c0.3,0.1,0.5,0.1,0.6,0.2l-0.6,2.8
		c-0.3-0.1-0.7-0.2-1.3-0.3c-0.6-0.1-1.3-0.2-2.3-0.2c-0.6,0-1.2,0.1-1.8,0.2c-0.6,0.1-1,0.2-1.2,0.3v15.1h-3.2V14.4
		c0.8-0.3,1.7-0.5,2.8-0.8C345.4,13.4,346.6,13.2,348,13.2z"/>
	<path class="st0" d="M356.3,10.4c-0.6,0-1.1-0.2-1.5-0.6c-0.4-0.4-0.6-0.9-0.6-1.5c0-0.6,0.2-1.2,0.6-1.5c0.4-0.4,0.9-0.6,1.5-0.6
		c0.6,0,1.1,0.2,1.5,0.6c0.4,0.4,0.6,0.9,0.6,1.5c0,0.6-0.2,1.2-0.6,1.5C357.4,10.2,356.9,10.4,356.3,10.4z M358,31.6h-3.2v-18h3.2
		V31.6z"/>
</g>
<g>
	<path class="st0" d="M8.5,38.9c0.4,0.4,0.9,0.7,1.5,1c0.6,0.3,1.2,0.6,2,0.8c1.2,0.4,2,0.8,2.5,1.2c0.5,0.4,0.8,0.8,0.8,1.4
		c0,0.6-0.2,1-0.7,1.3c-0.5,0.2-1.2,0.4-2.3,0.4c-1,0-2-0.1-2.8-0.3C8.7,44.4,8,44.2,7.4,44l-0.7,3.3c0.4,0.2,1,0.4,1.9,0.6
		c0.9,0.2,2.1,0.4,3.6,0.4c2.2,0,3.9-0.4,5.1-1.2c1.2-0.8,1.8-2.1,1.8-3.7c0-0.8-0.1-1.4-0.3-1.9c-0.2-0.5-0.5-1-0.9-1.4
		c-0.4-0.4-1-0.8-1.6-1.1c-0.6-0.3-1.4-0.7-2.4-1c-0.6-0.2-1-0.4-1.4-0.6c-0.4-0.2-0.7-0.4-0.9-0.6c-0.2-0.2-0.4-0.4-0.5-0.6
		C11,35.8,11,35.6,11,35.3c0-0.6,0.2-1,0.7-1.3c0.5-0.3,1.1-0.4,1.9-0.4c0.9,0,1.7,0.1,2.3,0.2c0.7,0.2,1.2,0.3,1.7,0.5l0.7-3.2
		c-0.5-0.2-1.1-0.3-2-0.5c-0.9-0.2-1.9-0.3-2.9-0.3c-2,0-3.5,0.4-4.7,1.3c-1.1,0.9-1.7,2.1-1.7,3.7c0,0.8,0.1,1.5,0.4,2
		C7.7,38,8,38.5,8.5,38.9z"/>
	<path class="st0" d="M26.3,34.1c0.3,0,0.7-0.1,1.2-0.2c0.5-0.1,1.1-0.1,1.6-0.1c0.7,0,1.2,0.1,1.7,0.3c0.5,0.2,0.8,0.5,1.1,0.9
		c0.3,0.4,0.5,0.9,0.6,1.6c0.1,0.6,0.2,1.4,0.2,2.3v8.9h3.9v-9.5c0-1.1-0.1-2.2-0.3-3.2c-0.2-1-0.6-1.8-1.2-2.5
		c-0.6-0.7-1.3-1.2-2.2-1.6c-0.9-0.4-2.1-0.6-3.5-0.6c-1.5,0-2.8,0.1-4,0.3c-1.2,0.2-2.2,0.4-2.9,0.6v16.4h3.9V34.1z"/>
	<path class="st0" d="M41.2,46.9c0.6,0.4,1.3,0.7,2.2,0.9c0.8,0.2,1.8,0.3,2.8,0.3c1.5,0,2.9-0.1,4.1-0.3c1.2-0.2,2.1-0.3,2.7-0.5
		V37.1c0-1-0.1-1.9-0.3-2.7c-0.2-0.8-0.6-1.5-1.1-2.1c-0.5-0.6-1.2-1-2.1-1.4c-0.9-0.3-2-0.5-3.3-0.5c-1.1,0-2.1,0.1-3,0.3
		c-1,0.2-1.7,0.3-2.2,0.5l0.5,3.2c0.5-0.2,1.1-0.3,1.8-0.5c0.8-0.1,1.6-0.2,2.5-0.2c0.7,0,1.2,0.1,1.7,0.3c0.4,0.2,0.8,0.4,1.1,0.7
		c0.3,0.3,0.5,0.7,0.6,1.1c0.1,0.4,0.2,0.8,0.2,1.3v0.6c-0.5-0.1-1.1-0.2-1.5-0.3c-0.5-0.1-0.9-0.1-1.4-0.1c-0.9,0-1.8,0.1-2.7,0.3
		c-0.9,0.2-1.6,0.5-2.3,0.9c-0.6,0.4-1.2,1-1.5,1.6c-0.4,0.7-0.6,1.5-0.6,2.5c0,1,0.2,1.9,0.5,2.6C40.1,45.9,40.6,46.5,41.2,46.9z
		 M43.5,41.4c0.2-0.3,0.5-0.6,0.9-0.7c0.4-0.2,0.8-0.3,1.2-0.4c0.4-0.1,0.9-0.1,1.3-0.1c0.5,0,1,0,1.4,0.1c0.4,0.1,0.7,0.1,0.9,0.2
		v4.3C48.6,45,47.7,45,46.5,45c-1,0-1.8-0.2-2.4-0.5c-0.6-0.4-0.9-1-0.9-1.9C43.2,42.1,43.3,41.7,43.5,41.4z"/>
	<path class="st0" d="M61,34.1c0.3,0,0.6-0.1,1.2-0.2c0.5-0.1,1-0.1,1.4-0.1c1.2,0,2,0.4,2.5,1.2c0.4,0.8,0.7,2.1,0.7,3.8v8.9h3.9
		v-9.4c0-0.7,0-1.3-0.1-1.9c-0.1-0.6-0.2-1.2-0.4-1.7c0.3-0.2,0.7-0.4,1.3-0.6c0.6-0.2,1.2-0.3,1.8-0.3c1.2,0,2.1,0.4,2.5,1.2
		c0.4,0.8,0.7,2.1,0.7,3.8v8.9h3.9v-9.5c0-1.1-0.1-2.2-0.3-3.2c-0.2-1-0.5-1.8-1-2.5c-0.5-0.7-1.2-1.2-2-1.6
		c-0.9-0.4-1.9-0.6-3.3-0.6c-0.5,0-1,0.1-1.5,0.2c-0.5,0.1-1,0.2-1.4,0.4c-0.5,0.2-0.9,0.3-1.2,0.5c-0.4,0.2-0.7,0.4-0.9,0.6
		c-0.5-0.5-1.1-0.9-1.9-1.2c-0.7-0.3-1.7-0.5-2.9-0.5c-1.4,0-2.7,0.1-3.9,0.3c-1.2,0.2-2.2,0.4-3,0.6v16.4H61V34.1z"/>
	<path class="st0" d="M44.1,0.6c-24.8,0-45,20.1-45,45c0,13.2,5.7,25.1,14.7,33.3c8,7.3,18.6,11.7,30.2,11.7
		c21,0,38.6-14.3,43.6-33.7c0.9-3.6,1.4-7.4,1.4-11.2C89.1,20.8,69,0.6,44.1,0.6z M13.6,15.1C21.4,7.3,32.2,2.4,44.1,2.4
		c11.9,0,22.7,4.8,30.5,12.6c7.8,7.8,12.6,18.6,12.6,30.5c0,3.1-0.3,6-0.9,8.9H1.9C1.3,51.7,1,48.7,1,45.6
		C1,33.7,5.8,22.9,13.6,15.1z M68.1,58.1l6.5,18.1c-3.4,3.4-7.4,6.2-11.7,8.3l-7.1-26.4H68.1z M72.3,58.1h13.2
		c-1.6,5.5-4.3,10.5-7.9,14.8L72.3,58.1z M37.4,58.1l-7.6,28.2c-4.6-1.6-8.8-3.9-12.5-6.9l7.8-21.3H37.4z M2.8,58.1h18.1l-6.8,18.6
		c-0.2-0.2-0.4-0.3-0.5-0.5C8.6,71.2,4.9,65,2.8,58.1z M33.5,87.5l7.9-29.4h10.3l7.5,28c-4.7,1.8-9.8,2.7-15.1,2.7
		C40.5,88.8,36.9,88.3,33.5,87.5z"/>
</g>
</svg>
