<?xml version="1.0" encoding="UTF-8"?>
<svg width="76px" height="60px" viewBox="0 0 76 60" version="1.1" xmlns="http://www.w3.org/2000/svg" xmlns:xlink="http://www.w3.org/1999/xlink">
    <!-- Generator: Sketch 52.5 (67469) - http://www.bohemiancoding.com/sketch -->
    <title>Group 6</title>
    <desc>Created with Sketch.</desc>
    <g id="Symbols" stroke="none" stroke-width="1" fill="none" fill-rule="evenodd">
        <g id="Regulations-Icon-03" transform="translate(-12.000000, -19.000000)" fill="#FEFEFE">
            <g id="Group-6" transform="translate(12.000000, 19.000000)">
                <polygon id="Fill-1" opacity="0.5" points="37.9181265 0 30.9829996 10.9688451 44.8532535 10.9688451"></polygon>
                <polygon id="Fill-2" opacity="0.500999814" points="52.411902 22.9240901 46.1455412 13.0127662 29.6907795 13.0127662 23.4244187 22.9240901"></polygon>
                <polygon id="Fill-3" points="59.9704829 34.879369 53.704122 24.9680451 22.132131 24.9680451 15.8657702 34.879369"></polygon>
                <polygon id="Fill-4" opacity="0.500999814" points="67.529216 46.834631 61.2628552 36.923307 14.5732962 36.923307 8.30693541 46.834631"></polygon>
                <polygon id="Fill-5" opacity="0.500999814" points="7.01457996 48.8786704 6.77060134e-05 59.973431 75.8362192 59.973431 68.8215376 48.8786704"></polygon>
            </g>
        </g>
    </g>
</svg>