<?xml version="1.0" encoding="utf-8"?>
<!-- Generator: Adobe Illustrator 20.1.0, SVG Export Plug-In . SVG Version: 6.00 Build 0)  -->
<svg version="1.1" id="Layer_1" xmlns="http://www.w3.org/2000/svg" xmlns:xlink="http://www.w3.org/1999/xlink" x="0px" y="0px"
	 viewBox="0 0 512 512" style="enable-background:new 0 0 512 512;" xml:space="preserve">
<style type="text/css">
	.st0{fill:#5F696E;}
</style>
<g>
	<path class="st0" d="M6.4,37.3v437.5c0,17.3,14,31.2,31.2,31.2h31.3V6H37.7C20.4,6,6.4,20,6.4,37.3z"/>
	<path class="st0" d="M475.2,6h-375v500h375c17.3,0,31.2-14,31.2-31.2V37.3C506.4,20,492.4,6,475.2,6z M412.7,349.8V381h-250v-31.2
		h0.1c0.6-31.2,12.5-54.1,91.4-87.8c-17.4-18.5-29-40.7-29-68.4c0-43.2,28.1-62.5,62.6-62.5s62.4,19.3,62.4,62.5
		c0,27.7-11.4,50.4-28.8,68.9c78.9,33.7,90.8,56.1,91.5,87.3H412.7z"/>
</g>
</svg>
